<?xml version="1.0" encoding="utf-8"?>
<!-- Generator: Adobe Illustrator 16.0.0, SVG Export Plug-In . SVG Version: 6.00 Build 0)  -->
<!DOCTYPE svg PUBLIC "-//W3C//DTD SVG 1.1//EN" "http://www.w3.org/Graphics/SVG/1.1/DTD/svg11.dtd">
<svg version="1.1" id="Capa_1" xmlns="http://www.w3.org/2000/svg" xmlns:xlink="http://www.w3.org/1999/xlink" x="0px" y="0px"
	 width="350.235px" height="74px" viewBox="162.599 74 350.235 74" enable-background="new 162.599 74 350.235 74"
	 xml:space="preserve">
<g>
	<path fill="#E22A28" d="M180.245,87.222c1.205-0.442,2.067-0.592,2.589-0.452c0.521,0.141,0.743,0.572,0.662,1.295
		c-0.081,0.442-0.251,0.733-0.512,0.873c-0.261,0.141-0.772,0.211-1.535,0.211c-1.125,0-2.41,0.461-3.854,1.385
		c-1.446,0.925-3.252,2.51-5.421,4.758c-1.325,1.324-2.188,2.349-2.59,3.071c-0.401,0.723-0.442,1.355-0.121,1.897
		c0.32,0.542,1.064,1.154,2.229,1.837c1.726,1.004,3.252,2.329,4.577,3.975c1.325,1.647,2.147,3.313,2.469,5
		c0.201,0.924,0.261,1.787,0.181,2.59c-0.082,0.804-0.421,1.747-1.024,2.831c-1.044,1.967-2.288,3.371-3.732,4.214
		c-0.082,0.042-0.222,0.102-0.421,0.183c-0.684,0.441-1.216,0.752-1.597,0.933s-0.924,0.352-1.626,0.512
		c-0.703,0.16-1.535,0.281-2.5,0.362c-1.887,0.08-3.262-0.11-4.125-0.573c-0.865-0.46-1.295-1.254-1.295-2.378
		c0-0.883,0.441-1.796,1.325-2.74c0.883-0.943,2.892-2.479,6.022-4.606c0.844-0.604,1.786-1.185,2.831-1.748
		c1.044-0.562,1.837-0.994,2.379-1.295c0.542-0.301,0.812-0.471,0.812-0.512c0-0.482-0.631-1.345-1.896-2.589
		c-1.265-1.244-2.5-2.249-3.705-3.011c-1.364-0.803-2.249-1.496-2.648-2.078c-0.402-0.582-0.463-1.416-0.182-2.5
		c0.362-1.364,2.098-3.452,5.21-6.262C175.859,89.591,178.358,87.864,180.245,87.222z M177.414,112.938
		c0-0.562-0.071-1.135-0.211-1.716c-0.141-0.583-0.311-0.874-0.511-0.874c-0.522-0.081-2.57,1.064-6.143,3.433
		c-3.574,2.369-5.581,3.996-6.022,4.878c-0.362,0.724-0.281,1.315,0.241,1.777c0.521,0.462,1.465,0.672,2.83,0.632
		c2.448-0.039,4.698-0.893,6.746-2.559C176.39,116.843,177.414,114.985,177.414,112.938z"/>
	<path fill="#E22A28" d="M191.868,74.213c0.602-0.362,0.904-0.261,0.904,0.301c0,0.522-0.262,2.048-0.783,4.577
		c-2.208,10.48-3.695,17.728-4.458,21.742c-0.682,3.734-1.023,5.902-1.023,6.505c0,0.081-0.021,0.18-0.061,0.301
		c-0.039,0.121-0.05,0.201-0.029,0.241c0.02,0.04,0.109,0.09,0.271,0.15c0.161,0.061,0.392,0.101,0.693,0.121
		c0.301,0.021,0.773,0.071,1.416,0.151c1.365,0.081,2.278,0.21,2.74,0.391c0.462,0.18,0.612,0.472,0.452,0.873
		c-0.04,0.081-0.071,0.151-0.09,0.211c-0.021,0.06-0.06,0.121-0.121,0.18c-0.061,0.061-0.11,0.101-0.151,0.121
		c-0.039,0.02-0.12,0.03-0.24,0.03s-0.232,0-0.331,0c-0.101,0-0.252,0-0.452,0c-0.202,0-0.392-0.01-0.573-0.03
		c-0.18-0.02-0.431-0.04-0.752-0.06c-0.322-0.02-0.643-0.03-0.963-0.03c-1.004-0.081-1.646-0.11-1.927-0.09
		c-0.282,0.021-0.462,0.172-0.542,0.452c-0.201,0.762-0.462,2.399-0.783,4.908c-0.321,2.51-0.562,4.707-0.724,6.595
		c-0.2,2.771-0.502,4.136-0.904,4.096c-0.119,0-0.261-0.141-0.421-0.422c-0.36-0.682-0.24-3.895,0.363-9.637
		c0.08-0.882,0.189-1.846,0.331-2.891c0.14-1.044,0.271-2.128,0.391-3.252c-0.081-0.079-0.643-0.18-1.687-0.301
		c-1.004-0.16-1.727-0.311-2.168-0.452c-0.441-0.14-0.663-0.291-0.663-0.452c0-0.16,0.021-0.34,0.061-0.542
		c0.08-0.32,0.321-0.501,0.723-0.541c0.4-0.041,1.183,0,2.349,0.12c1.204,0.121,1.826,0.162,1.867,0.121
		c0.161-1.043,0.321-2.068,0.482-3.071c0.16-1.003,0.32-1.967,0.481-2.891c0.762-3.935,1.846-9.235,3.252-15.899
		c0.321-1.485,0.683-3.122,1.084-4.909c0.401-1.786,0.702-3.132,0.903-4.034c0.201-0.904,0.302-1.375,0.302-1.416
		c0-0.16,0.09-0.381,0.271-0.663C191.536,74.535,191.707,74.333,191.868,74.213z"/>
	<path fill="#E22A28" d="M191.868,108.18c0.401-0.201,0.702-0.291,0.904-0.271c0.2,0.021,0.58,0.172,1.144,0.452
		c0.642,0.322,1.505,0.442,2.588,0.362c1.567-0.16,2.449,0.1,2.651,0.782c0.2,0.643-0.321,2.088-1.567,4.336
		c-1.364,2.49-1.927,3.875-1.686,4.156c0.12,0.12,0.441,0.181,0.964,0.181c0.2,0,0.4-0.01,0.602-0.031
		c0.2-0.019,0.4-0.05,0.602-0.09c0.2-0.039,0.362-0.08,0.482-0.12c0.12-0.04,0.291-0.11,0.512-0.211
		c0.219-0.1,0.38-0.181,0.482-0.241c0.099-0.06,0.271-0.16,0.512-0.301s0.38-0.221,0.421-0.241c0.039-0.02,0.19-0.109,0.451-0.271
		c0.261-0.159,0.412-0.261,0.453-0.301c0.361-0.241,0.692-0.302,0.993-0.182c0.301,0.121,0.411,0.402,0.331,0.843
		c-0.161,0.482-0.744,1.024-1.747,1.627c-1.606,0.924-3.132,1.325-4.576,1.204c-1.446-0.12-2.168-0.803-2.168-2.048
		c0-0.44,0.16-1.093,0.482-1.957c0.321-0.862,0.702-1.596,1.144-2.198c0.362-0.482,0.671-0.982,0.933-1.505
		c0.261-0.521,0.442-0.924,0.542-1.205c0.1-0.281,0.151-0.441,0.151-0.481c-0.161-0.04-0.312-0.061-0.452-0.061
		c-0.141,0-0.412,0.04-0.812,0.121c-0.323,0.041-0.533,0.151-0.633,0.331c-0.1,0.181-0.19,0.532-0.271,1.054
		c-0.282,1.406-1.406,2.911-3.374,4.517c-1.847,1.486-3.011,1.908-3.493,1.265c-0.039-0.079-0.08-0.14-0.121-0.181
		c-0.159-0.481,0.342-1.022,1.506-1.626c1.002-0.48,1.876-1.163,2.62-2.047c0.742-0.883,1.254-1.786,1.535-2.71
		c0.081-0.24,0.07-0.401-0.029-0.481c-0.101-0.08-0.392-0.121-0.875-0.121c-0.682,0-1.144-0.1-1.384-0.301
		c-0.241-0.201-0.382-0.542-0.421-1.024C191.225,108.722,191.425,108.381,191.868,108.18z"/>
	<path fill="#E22A28" d="M203.28,111.281c0.261-0.1,0.473-0.039,0.633,0.181c0.16,0.222,0.081,1.576-0.241,4.064
		c-0.202,1.486-0.261,2.289-0.18,2.41c0.2,0.321,0.1,0.662-0.302,1.024c-0.402,0.36-0.782,0.481-1.144,0.36
		c-0.121-0.039-0.251-0.189-0.392-0.452c-0.141-0.261-0.231-0.49-0.271-0.691c-0.081-0.28-0.061-0.441,0.06-0.482
		c0.121-0.039,0.181-0.34,0.181-0.903c0-0.723,0.1-1.586,0.301-2.589c0.201-1.004,0.401-1.707,0.602-2.109
		C202.768,111.653,203.019,111.382,203.28,111.281z M203.25,106.132c0.281-0.322,0.551-0.482,0.814-0.482
		c0.261,0,0.49,0.161,0.692,0.482c0.2,0.321,0.261,0.703,0.181,1.144c-0.081,0.723-0.281,1.095-0.602,1.114
		c-0.321,0.021-0.643-0.311-0.964-0.994C203.09,106.875,203.049,106.454,203.25,106.132z"/>
	<path fill="#E22A28" d="M207.706,106.916c0.521-0.482,0.904-0.743,1.145-0.783c0.281-0.039,0.512,0.081,0.692,0.361
		c0.18,0.282,0.32,0.823,0.421,1.626c0.1,0.804,0.151,1.949,0.151,3.434l-0.061,3.011l1.686-1.987
		c0.803-1.002,1.847-1.927,3.133-2.77c1.966-1.244,3.362-1.546,4.186-0.904c0.821,0.643,0.993,2.208,0.512,4.697
		c-0.402,1.927-1.106,3.665-2.109,5.21c-1.004,1.546-2.038,2.62-3.102,3.222c-1.064,0.603-1.918,0.644-2.559,0.121
		c-0.322-0.361-0.412-1.073-0.271-2.138c0.139-1.063,0.351-1.797,0.631-2.198c0.241-0.361,0.582-0.501,1.024-0.422
		c0.28,0.04,0.362,0.241,0.24,0.603c-0.441,1.365-0.401,2.129,0.122,2.288c0.441,0.202,1.144-0.441,2.107-1.928
		c1.847-2.891,2.65-5.078,2.409-6.564c-0.122-0.682-0.522-1.002-1.205-0.963c-1.285,0.161-2.791,1.225-4.517,3.192
		c-1.727,1.969-2.53,3.514-2.409,4.638c0.16,1.526-0.081,4.698-0.722,9.516c-0.643,4.818-1.165,7.989-1.566,9.516
		c-0.041,0.12-0.261,0.953-0.663,2.499c-0.402,1.545-0.772,2.9-1.114,4.065s-0.632,2.027-0.873,2.59
		c-0.24,0.521-0.491,0.873-0.753,1.054c-0.261,0.182-0.501,0.121-0.723-0.181c-0.221-0.301-0.392-0.812-0.512-1.535
		c-0.521-3.372-0.421-7.318,0.301-11.835s1.927-8.822,3.613-12.917c0.803-1.848,1.295-3.292,1.476-4.337
		c0.181-1.044,0.25-2.448,0.211-4.216c-0.042-0.964-0.082-1.687-0.122-2.168c-0.081-0.882-0.19-1.325-0.331-1.325
		s-0.512,0.623-1.114,1.867c-0.241,0.442-0.441,0.803-0.602,1.084c-0.121,0.24-0.241,0.451-0.361,0.632
		c-0.121,0.182-0.272,0.362-0.452,0.542c-0.181,0.182-0.352,0.231-0.512,0.15c-0.161-0.08-0.301-0.28-0.422-0.603
		c-0.161-0.401,0.181-1.415,1.023-3.041C206.561,108.391,207.224,107.357,207.706,106.916z M208.067,124.561
		c0.122-1.243,0.08-1.886-0.12-1.927c-0.121,0.121-0.543,1.396-1.265,3.825c-0.724,2.43-1.185,4.205-1.386,5.329
		c-0.682,3.975-1.043,7.729-1.084,11.263v0.481c0.161-0.281,0.492-1.385,0.994-3.312c0.502-1.927,1.044-4.417,1.626-7.468
		C207.415,129.7,207.827,126.971,208.067,124.561z"/>
	<path fill="#E22A28" d="M257.271,82.825c0.923-0.281,1.887-0.401,2.892-0.362c1.484,0.04,2.288,0.481,2.409,1.325
		c0.039,0.081,0.069,0.292,0.09,0.632c0.02,0.341,0.031,0.613,0.031,0.812c0.2,1.286,0.219,2.009,0.06,2.168
		c-0.201,0.161-0.372,0.201-0.512,0.121c-0.141-0.081-0.331-0.381-0.571-0.904c-0.323-0.641-0.663-1.124-1.025-1.445
		c-0.643-0.521-1.517-0.672-2.62-0.452c-1.104,0.222-2.86,0.812-5.27,1.776c-2.288,0.924-3.553,1.606-3.793,2.047
		c-0.041,0.121-0.09,0.282-0.15,0.482c-0.061,0.201-0.142,0.552-0.241,1.054c-0.1,0.503-0.202,1.024-0.301,1.566
		c-0.101,0.542-0.251,1.385-0.452,2.529c-0.202,1.144-0.402,2.299-0.602,3.463c-1.125,6.063-2.028,11.583-2.71,16.562
		c-0.643,4.658-1.185,7.487-1.625,8.492c-0.121,0.36-0.393,0.542-0.814,0.542s-0.753-0.101-0.993-0.301
		c-0.362-0.281-0.481-1.286-0.362-3.012c0.081-1.526,0.081-2.59,0-3.192c-0.281-2.007-0.321-3.171-0.12-3.492
		c0.159-0.242,0.441,0.039,0.843,0.843c0.12,0.24,0.24,0.541,0.361,0.903c0.08,0.201,0.17,0.432,0.271,0.692
		c0.1,0.262,0.19,0.553,0.271,0.873c0.121,0,0.442-1.786,0.963-5.36c1.004-6.745,1.907-12.125,2.711-16.141
		c0.44-2.368,0.661-3.814,0.661-4.336c0-0.321-0.01-0.551-0.029-0.692c-0.021-0.14-0.061-0.221-0.121-0.241
		c-0.06-0.02-0.131-0.031-0.211-0.031c-0.04,0-0.081,0-0.121,0c-0.24,0-1.677,0.653-4.306,1.958
		c-2.63,1.305-4.085,2.078-4.366,2.318c-0.041,0.041-0.08,0.091-0.12,0.151c-0.041,0.06-0.06,0.12-0.06,0.18
		c0,0.061,0,0.141,0,0.241c0,0.101,0,0.222,0,0.362c0,0.141,0,0.331,0,0.572c-0.041,0.884-0.141,1.325-0.302,1.325
		c-0.04,0-0.141-0.039-0.301-0.121c-0.201-0.12-0.432-0.441-0.693-0.963c-0.261-0.521-0.431-1.023-0.512-1.505
		c-0.04-0.321-0.029-0.551,0.031-0.692c0.06-0.14,0.25-0.351,0.571-0.633c0.763-0.722,5.061-2.93,12.889-6.624
		C252.875,84.472,255.624,83.307,257.271,82.825z"/>
	<path fill="#E22A28" d="M251.429,109.203c0.642-0.2,1.355-0.2,2.139,0c0.782,0.202,1.255,0.503,1.416,0.904
		c0.12,0.321,0.12,0.883,0,1.686c-0.401,2.973-0.443,4.799-0.122,5.48c0.161,0.241,0.291,0.353,0.392,0.332
		c0.1-0.02,0.371-0.211,0.813-0.573c0.843-0.682,1.324-0.801,1.445-0.36c0.039,0.08,0.039,0.221,0,0.422
		c-0.121,0.321-0.482,0.793-1.084,1.415c-0.602,0.622-1.104,0.974-1.506,1.054c-0.441,0.12-0.743,0.09-0.903-0.09
		c-0.161-0.182-0.361-0.753-0.602-1.717c-0.081-0.28-0.151-0.603-0.21-0.964c-0.06-0.361-0.101-0.652-0.121-0.873
		c-0.02-0.22-0.051-0.331-0.09-0.331c-0.12-0.121-0.662,0.401-1.626,1.565c-1.324,1.606-2.389,2.31-3.192,2.108
		c-0.28-0.08-0.481-0.221-0.602-0.422c-0.12-0.2-0.261-0.622-0.422-1.265c-0.28-1.164,0.1-2.779,1.145-4.848
		C249.341,110.659,250.385,109.485,251.429,109.203z M253.176,111.433c-0.161-0.401-0.442-0.603-0.843-0.603
		c-0.402,0-0.843,0.202-1.326,0.603c-1.124,1.004-1.867,2.429-2.228,4.275c-0.24,1.084-0.24,1.626,0,1.626
		c0.241,0,0.762-0.502,1.565-1.506c0.121-0.12,0.28-0.302,0.482-0.541c0.521-0.643,0.904-1.115,1.145-1.416
		c0.24-0.301,0.49-0.643,0.752-1.024c0.261-0.38,0.422-0.672,0.481-0.873S253.256,111.593,253.176,111.433z"/>
	<path fill="#E22A28" d="M263.776,90.233c0.482-0.521,1.023-0.783,1.626-0.783c0.521,0,0.852,0.09,0.993,0.271
		c0.141,0.182,0.291,0.733,0.452,1.657c0.32,1.606,0.139,3.965-0.542,7.076c-0.682,3.112-1.786,6.575-3.312,10.39
		c-1.205,3.092-1.807,4.718-1.807,4.878c0,0.603,0.15,1.336,0.452,2.198c0.301,0.863,0.671,1.354,1.115,1.476
		c0.4,0.12,0.742,0.061,1.023-0.181c1.043-0.723,1.646-1.044,1.807-0.964c0.079,0.081,0.14,0.221,0.181,0.422
		c0,0.401-0.151,0.793-0.453,1.175c-0.3,0.382-0.653,0.672-1.053,0.873c-1.045,0.401-1.968,0.352-2.771-0.151
		c-0.803-0.501-1.324-1.334-1.565-2.5c-0.082-0.52-0.241-0.781-0.482-0.781c-0.241,0-0.461,0.2-0.663,0.601
		c-0.241,0.443-0.703,0.965-1.385,1.567c-0.684,0.602-1.144,0.902-1.385,0.902c-0.28,0-0.46-0.14-0.542-0.421
		c-0.079-0.28-0.02-0.582,0.182-0.904c0-0.039,0.561-0.782,1.686-2.229c0.882-1.163,1.424-2.066,1.625-2.71
		c0.122-0.32,0.422-2.688,0.904-7.106c0.562-4.577,1.124-7.939,1.686-10.087C262.11,92.753,262.852,91.196,263.776,90.233z
		 M265.131,94.569c0.1-2.127,0.05-3.192-0.151-3.192c-0.201,0-0.481,0.352-0.843,1.054c-0.361,0.703-0.682,1.536-0.962,2.5
		c-0.322,1.003-0.704,2.89-1.145,5.661c-0.442,2.771-0.703,4.879-0.783,6.325c-0.082,1.324-0.082,1.987,0,1.987
		c0.04,0.04,0.12-0.02,0.241-0.18c0.32-0.401,0.773-1.446,1.355-3.132c0.581-1.686,1.054-3.332,1.415-4.938
		C264.74,98.725,265.031,96.698,265.131,94.569z"/>
	<path fill="#E22A28" d="M270.822,108.301c1.808-0.883,3.051-0.964,3.734-0.241c0.361,0.361,0.542,0.612,0.542,0.752
		c0,0.141-0.12,0.452-0.361,0.934c-0.202,0.402-0.481,0.612-0.843,0.632c-0.362,0.021-0.643-0.15-0.843-0.511
		c-0.161-0.281-0.361-0.411-0.603-0.392c-0.241,0.021-0.663,0.211-1.264,0.572c-1.325,0.844-2.421,1.949-3.283,3.313
		c-0.863,1.366-1.155,2.61-0.873,3.734c0.32,1.325,1.766,1.727,4.336,1.204c0.842-0.159,2.108-0.662,3.793-1.506
		c1.284-0.642,1.928-0.843,1.928-0.603c0.04,0.16-0.042,0.442-0.241,0.843c-0.482,1.204-2.349,2.129-5.601,2.771
		c-0.884,0.2-1.817,0.231-2.801,0.09c-0.984-0.14-1.677-0.432-2.077-0.873c-1.205-1.364-1.525-2.952-0.964-4.759
		c0.322-0.843,1.074-1.936,2.258-3.281C268.844,109.636,269.899,108.743,270.822,108.301z"/>
	<path fill="#E22A28" d="M279.856,109.203c0.642-0.2,1.354-0.2,2.137,0c0.784,0.202,1.255,0.503,1.416,0.904
		c0.122,0.321,0.122,0.883,0,1.686c-0.402,2.973-0.441,4.799-0.12,5.48c0.16,0.241,0.29,0.353,0.391,0.332
		c0.099-0.02,0.37-0.211,0.812-0.573c0.843-0.682,1.326-0.801,1.445-0.36c0.041,0.08,0.041,0.221,0,0.422
		c-0.12,0.321-0.48,0.793-1.084,1.415c-0.603,0.622-1.104,0.974-1.505,1.054c-0.442,0.12-0.744,0.09-0.902-0.09
		c-0.161-0.182-0.362-0.753-0.604-1.717c-0.081-0.28-0.15-0.603-0.21-0.964c-0.061-0.361-0.1-0.652-0.121-0.873
		c-0.02-0.22-0.05-0.331-0.09-0.331c-0.121-0.121-0.663,0.401-1.626,1.565c-1.325,1.606-2.389,2.31-3.191,2.108
		c-0.282-0.08-0.482-0.221-0.602-0.422c-0.122-0.2-0.263-0.622-0.421-1.265c-0.282-1.164,0.099-2.779,1.143-4.848
		C277.767,110.659,278.811,109.485,279.856,109.203z M281.602,111.433c-0.162-0.401-0.443-0.603-0.844-0.603
		s-0.843,0.202-1.324,0.603c-1.125,1.004-1.867,2.429-2.229,4.275c-0.241,1.084-0.241,1.626,0,1.626s0.763-0.502,1.566-1.506
		c0.12-0.12,0.28-0.302,0.481-0.541c0.521-0.643,0.902-1.115,1.144-1.416s0.492-0.643,0.753-1.024
		c0.26-0.38,0.421-0.672,0.482-0.873C281.692,111.772,281.682,111.593,281.602,111.433z"/>
</g>
</svg>
