<?xml version="1.0" encoding="utf-8"?>
<!-- Generator: Adobe Illustrator 16.0.0, SVG Export Plug-In . SVG Version: 6.00 Build 0)  -->
<!DOCTYPE svg PUBLIC "-//W3C//DTD SVG 1.1//EN" "http://www.w3.org/Graphics/SVG/1.1/DTD/svg11.dtd">
<svg version="1.1" id="Layer_1" xmlns="http://www.w3.org/2000/svg" xmlns:xlink="http://www.w3.org/1999/xlink" x="0px" y="0px"
	 width="351px" height="74px" viewBox="0 0 351 74" enable-background="new 0 0 351 74" xml:space="preserve">
<g>
	<path fill="#E22A27" d="M31.307,13.758c0.643,0,1.009,0.25,1.099,0.75c0.089,0.5-0.152,0.947-0.724,1.34
		c-2.645,0.536-5.154,1.402-7.53,2.599c-2.376,1.197-4.547,2.653-6.512,4.368c-1.965,1.715-3.671,3.636-5.118,5.761
		c-1.447,2.126-2.582,4.387-3.403,6.78c-0.322,0.857-0.608,1.885-0.858,3.082c-0.25,1.197-0.375,2.421-0.375,3.671
		c0,0.822,0.089,1.635,0.268,2.438c0.178,0.804,0.5,1.51,0.965,2.117c0.785,1.036,1.688,1.751,2.706,2.144
		c1.019,0.394,2.063,0.59,3.135,0.59c0.965,0,1.957-0.107,2.975-0.322c1.018-0.214,1.974-0.446,2.867-0.696
		c1.214-0.356,2.599-0.857,4.154-1.501c1.554-0.643,3.108-1.357,4.663-2.144c1.554-0.785,3.045-1.607,4.475-2.465
		c1.428-0.858,2.661-1.662,3.698-2.412c0.286-0.143,0.544-0.179,0.777-0.107c0.232,0.072,0.411,0.206,0.536,0.402
		c0.125,0.196,0.178,0.438,0.161,0.724c-0.018,0.286-0.134,0.535-0.348,0.75c-1.644,1.251-3.341,2.403-5.091,3.457
		c-1.751,1.054-3.609,2.01-5.574,2.867c-0.93,0.394-1.938,0.804-3.028,1.232c-1.09,0.429-2.207,0.813-3.35,1.152
		c-1.144,0.34-2.304,0.616-3.483,0.831c-1.179,0.214-2.305,0.321-3.376,0.321c-1.608,0-3.082-0.286-4.421-0.857
		s-2.475-1.608-3.403-3.108c-0.465-0.929-0.795-1.885-0.991-2.867c-0.197-0.982-0.295-2.01-0.295-3.082
		c0-2.251,0.41-4.52,1.232-6.806c0.322-0.965,0.679-1.822,1.072-2.573c0.393-0.75,0.785-1.5,1.179-2.251
		c0.214-0.393,0.429-0.804,0.643-1.232c0.215-0.429,0.429-0.839,0.644-1.233c0.429-0.821,1.187-1.866,2.277-3.135
		c1.09-1.268,2.5-2.572,4.234-3.912c1.733-1.34,3.778-2.607,6.137-3.805c2.358-1.197,4.984-2.152,7.878-2.867H31.307z"/>
	<path fill="#E22A27" d="M48.295,48.165c0.285,0.287,0.41,0.59,0.375,0.911c-0.143,0.429-0.304,0.68-0.482,0.751
		c-0.93,1.036-1.885,1.956-2.867,2.76c-0.983,0.804-1.832,1.17-2.546,1.099c-1.037-0.107-1.894-0.456-2.572-1.045
		c-0.679-0.59-1.233-1.349-1.662-2.278l-0.429-1.125c-0.429-1.286-0.643-2.805-0.643-4.556c0-1.25,0.125-2.482,0.375-3.698
		c0.25-1.214,0.598-2.321,1.045-3.322c0.446-1,0.991-1.831,1.634-2.492c0.644-0.661,1.375-1.062,2.198-1.206
		c0.571-0.071,1.045,0.019,1.42,0.268c0.375,0.25,0.67,0.581,0.884,0.992c0.214,0.411,0.357,0.884,0.429,1.42
		c0.071,0.536,0.107,1.072,0.107,1.608c0,0.535-0.045,1.054-0.134,1.554c-0.089,0.501-0.17,0.84-0.241,1.019V40.77
		c-0.644,1.822-1.34,3.43-2.09,4.823s-1.68,2.68-2.787,3.858c0.25,0.608,0.554,1.145,0.911,1.608
		c0.357,0.465,0.839,0.643,1.447,0.536c0.893-0.143,1.67-0.545,2.331-1.206s1.241-1.295,1.742-1.902
		c0.356-0.607,0.821-0.751,1.393-0.429L48.295,48.165z M39.667,44.414c0,0.429,0,0.857,0,1.286s0.035,0.84,0.107,1.232
		c0.821-1.107,1.527-2.251,2.117-3.43c0.59-1.18,1.045-2.286,1.367-3.323c0.107-0.393,0.196-0.75,0.268-1.071
		c0.071-0.322,0.107-0.644,0.107-0.965c0-0.393-0.072-0.759-0.214-1.099c-0.144-0.34-0.358-0.635-0.644-0.885
		c-0.608,0.287-1.108,0.732-1.5,1.34c-0.394,0.608-0.715,1.286-0.965,2.037c-0.25,0.75-0.42,1.554-0.509,2.411
		C39.711,42.806,39.667,43.628,39.667,44.414z"/>
	<path fill="#E22A27" d="M48.616,37.715c0-0.357,0.098-0.635,0.294-0.831c0.196-0.196,0.411-0.304,0.644-0.321
		c0.232-0.018,0.455,0.053,0.67,0.215c0.214,0.16,0.356,0.42,0.429,0.776v6.86c0,0.465-0.009,0.75-0.027,0.857
		c-0.019,0.107-0.027,0.179-0.027,0.214c0,0.036,0,0.107,0,0.215s0.018,0.394,0.054,0.857c0.429-1.214,0.929-2.412,1.5-3.591
		c0.571-1.179,1.232-2.286,1.983-3.323c0.286-0.321,0.607-0.481,0.965-0.481c0.071,0,0.151,0.009,0.241,0.026
		c0.088,0.019,0.169,0.026,0.241,0.026l0.59,0.054c0.071,0.072,0.169,0.18,0.295,0.322c0.125,0.143,0.205,0.214,0.241,0.214
		c0.357,0.786,0.617,1.546,0.777,2.277c0.161,0.733,0.312,1.475,0.456,2.225c0.178,1.107,0.41,2.18,0.697,3.216
		c0.286,1.036,0.821,1.894,1.608,2.572c0.214,0.25,0.303,0.501,0.268,0.75c-0.036,0.251-0.134,0.456-0.294,0.616
		c-0.161,0.161-0.375,0.269-0.643,0.322c-0.268,0.054-0.528-0.009-0.777-0.188c-0.465-0.394-0.849-0.849-1.152-1.367
		c-0.304-0.518-0.554-1.071-0.75-1.661c-0.197-0.59-0.358-1.188-0.482-1.796c-0.125-0.606-0.241-1.179-0.349-1.715
		c-0.107-0.606-0.224-1.206-0.348-1.795c-0.125-0.59-0.277-1.152-0.456-1.688c-0.786,1.215-1.412,2.448-1.876,3.698
		c-0.464,1.251-0.894,2.555-1.286,3.912l-1.018,3.162c-0.287,0.607-0.804,0.679-1.554,0.214c-0.214-0.178-0.394-0.526-0.536-1.045
		c-0.143-0.518-0.25-1.134-0.321-1.849c-0.072-0.715-0.126-1.501-0.161-2.358c-0.036-0.857-0.054-1.732-0.054-2.626
		c0-0.965,0.009-1.911,0.027-2.841c0.018-0.928,0.044-1.75,0.081-2.465c0-0.25,0.008-0.562,0.027-0.938
		C48.607,38.062,48.616,37.822,48.616,37.715z"/>
	<path fill="#E22A27" d="M59.87,37.179c0.214,0.179,0.322,0.394,0.322,0.644c0.178,0.071,0.321,0.106,0.429,0.106
		c0.107,0,0.232,0.019,0.375,0.054c0.179-2.215,0.393-4.466,0.643-6.752c0.25-2.286,0.571-4.466,0.965-6.539
		c0.107-0.322,0.276-0.544,0.509-0.67c0.232-0.125,0.473-0.151,0.724-0.081c0.25,0.072,0.455,0.214,0.616,0.429
		c0.161,0.214,0.223,0.501,0.188,0.858c-0.179,0.964-0.34,1.974-0.482,3.028c-0.143,1.054-0.277,2.135-0.402,3.242
		c-0.125,1.108-0.241,2.198-0.349,3.27c-0.107,1.072-0.197,2.09-0.268,3.055c0.821-0.179,1.652-0.42,2.492-0.725
		c0.839-0.303,1.635-0.598,2.385-0.884c0.356-0.107,0.651-0.098,0.884,0.027c0.232,0.125,0.383,0.304,0.456,0.537
		c0.071,0.232,0.054,0.481-0.054,0.75c-0.107,0.268-0.322,0.491-0.643,0.67c-0.214,0.071-0.519,0.179-0.911,0.321
		c-0.394,0.144-0.84,0.295-1.34,0.455c-0.501,0.161-1.045,0.313-1.635,0.456c-0.589,0.144-1.17,0.268-1.742,0.375l-0.214,3.376
		c0,0.18-0.009,0.349-0.027,0.51c-0.019,0.16-0.027,0.331-0.027,0.509c-0.036,0.501-0.062,0.991-0.08,1.474
		c-0.019,0.482-0.027,0.992-0.027,1.527c0,0.93,0.071,1.868,0.214,2.814c0.142,0.946,0.393,1.795,0.75,2.545
		c0.071,0.036,0.161,0.1,0.268,0.188c0.107,0.089,0.196,0.152,0.268,0.188l0.322,0.268c0.071,0,0.151-0.018,0.241-0.054
		c0.088-0.035,0.169-0.054,0.241-0.054c0.25-0.035,0.482-0.071,0.697-0.107c0.214-0.035,0.375-0.088,0.482-0.16
		c0.393-0.179,0.777-0.429,1.152-0.75c0.375-0.322,0.759-0.679,1.152-1.072l1.072-1.072c0.286-0.214,0.554-0.303,0.804-0.268
		c0.25,0.036,0.447,0.144,0.59,0.321c0.142,0.18,0.223,0.411,0.241,0.697c0.018,0.286-0.081,0.554-0.295,0.804
		c-0.536,0.465-1.09,0.92-1.662,1.366c-0.572,0.446-1.125,0.849-1.661,1.206c-0.536,0.356-1.072,0.651-1.608,0.885
		c-0.536,0.231-1.037,0.348-1.5,0.348c-0.822,0-1.537-0.348-2.144-1.045c-0.608-0.696-1.072-1.902-1.393-3.617
		c-0.107-0.607-0.179-1.215-0.214-1.822c-0.036-0.607-0.054-1.215-0.054-1.822c0.035-1.25,0.071-2.42,0.107-3.511
		c0.035-1.089,0.089-2.259,0.161-3.51c-0.715-0.035-1.394-0.196-2.037-0.482s-1.054-0.732-1.233-1.34
		c0-0.536,0.304-0.911,0.911-1.126l0.536-0.107C59.388,36.91,59.656,37,59.87,37.179z"/>
	<path fill="#E22A27" d="M71.339,52.024c-0.144,0.25-0.322,0.429-0.536,0.535c-0.214,0.107-0.429,0.135-0.643,0.081
		s-0.394-0.179-0.536-0.375c-0.142-0.196-0.214-0.474-0.214-0.831c0.072-0.393,0.179-0.777,0.322-1.152
		c0.142-0.375,0.286-0.759,0.429-1.152c0.142-0.393,0.276-0.785,0.402-1.179c0.125-0.393,0.223-0.786,0.295-1.18v0.054
		c0.214-0.785,0.437-1.679,0.67-2.68c0.232-1,0.446-2.036,0.643-3.108c0.196-1.071,0.366-2.151,0.509-3.242
		c0.142-1.09,0.214-2.117,0.214-3.082c-0.25-0.607-0.402-1.224-0.456-1.849c-0.054-0.625,0.098-1.188,0.456-1.688
		c0.285-0.393,0.598-0.571,0.938-0.536c0.339,0.036,0.67,0.233,0.992,0.59c0.035,0.357,0.071,0.822,0.107,1.393
		c0.035,0.572,0.054,1.09,0.054,1.554c0.214,0.465,0.5,1.019,0.857,1.662c0.357,0.644,0.697,1.232,1.019,1.769
		c0.393,0.679,0.759,1.305,1.099,1.876c0.339,0.571,0.562,1.054,0.67,1.447c0.142,0.643,0.142,1.429,0,2.357
		c-0.143,0.93-0.322,1.822-0.536,2.68c-0.214,0.894-0.384,1.707-0.509,2.438c-0.126,0.733-0.099,1.188,0.08,1.367
		c0.107,0.071,0.322,0.106,0.643,0.106c0.322,0,0.67-0.018,1.045-0.053c0.375-0.035,0.723-0.081,1.045-0.135
		c0.321-0.054,0.518-0.08,0.589-0.08c0.322,0,0.59,0.08,0.804,0.241s0.348,0.349,0.402,0.562c0.054,0.215,0.027,0.438-0.081,0.67
		c-0.107,0.233-0.304,0.421-0.589,0.562c-0.25,0.036-0.536,0.063-0.857,0.081c-0.322,0.019-0.679,0.026-1.072,0.026
		c-0.644,0-1.251-0.026-1.822-0.08c-0.572-0.054-0.965-0.151-1.179-0.295c-0.786-0.464-1.179-1.214-1.179-2.251
		c0-0.464,0.054-0.946,0.161-1.447c0.107-0.5,0.232-1.035,0.375-1.607c0.142-0.607,0.276-1.232,0.402-1.876
		c0.125-0.643,0.188-1.268,0.188-1.876c0-0.643-0.089-1.232-0.268-1.769v0.054c-0.107-0.356-0.294-0.731-0.562-1.125
		c-0.268-0.393-0.545-0.839-0.831-1.34v0.054l-0.054-0.161c-0.036-0.035-0.054-0.071-0.054-0.107
		c-0.214,1.751-0.509,3.493-0.884,5.226c-0.375,1.733-0.742,3.207-1.099,4.422c-0.107,0.394-0.233,0.795-0.375,1.205
		c-0.144,0.411-0.268,0.796-0.375,1.152c-0.143,0.357-0.259,0.697-0.348,1.019c-0.09,0.321-0.188,0.661-0.295,1.019L71.339,52.024z"
		/>
	<path fill="#E22A27" d="M86.211,36.295c0.232,0.125,0.393,0.303,0.482,0.535c0.089,0.232,0.089,0.482,0,0.751
		c-0.089,0.268-0.294,0.491-0.616,0.67l-0.643,0.106h0.161c-0.429,0.144-0.715,0.251-0.857,0.322
		c-0.429,0.321-0.795,0.769-1.099,1.34c-0.304,0.571-0.554,1.197-0.75,1.875c-0.197,0.68-0.331,1.394-0.402,2.145
		c-0.072,0.75-0.107,1.482-0.107,2.197c0,0.5,0.008,0.982,0.026,1.446c0.018,0.465,0.062,0.876,0.134,1.233
		c0.071,0.357,0.169,0.723,0.295,1.099c0.125,0.375,0.276,0.724,0.455,1.045c0.179,0.321,0.411,0.589,0.697,0.804
		c0.286,0.215,0.643,0.34,1.072,0.375c0.714,0.072,1.384-0.125,2.01-0.59c0.625-0.464,1.161-1.062,1.607-1.795
		c0.446-0.731,0.795-1.545,1.045-2.438c0.25-0.893,0.375-1.75,0.375-2.572c0-0.929-0.179-1.697-0.536-2.305
		c-0.179-0.356-0.536-0.598-1.072-0.724c-0.536-0.125-1.09-0.259-1.661-0.402l-1.233-0.321c-0.429-0.285-0.643-0.651-0.643-1.099
		c0-0.446,0.25-0.741,0.75-0.884c1.607-0.179,3.144-0.402,4.609-0.67c1.465-0.269,2.948-0.563,4.448-0.885
		c0.322,0,0.589,0.08,0.804,0.241s0.349,0.349,0.402,0.562c0.053,0.215,0.035,0.438-0.054,0.67c-0.09,0.233-0.277,0.421-0.563,0.563
		l-1.822,0.375c-0.358,0.071-0.644,0.134-0.858,0.188s-0.42,0.107-0.616,0.16c-0.197,0.054-0.42,0.1-0.67,0.135
		c-0.25,0.035-0.554,0.071-0.911,0.106c0.357,0.251,0.661,0.572,0.911,0.965c0,0.036,0.054,0.152,0.161,0.349
		c0.107,0.196,0.196,0.385,0.268,0.562l0.322,0.804v-0.054c0.142,0.287,0.241,0.59,0.294,0.911c0.054,0.322,0.081,0.626,0.081,0.911
		c0,0.965-0.224,1.992-0.67,3.082c-0.447,1.09-1.027,2.1-1.742,3.028c-0.715,0.93-1.527,1.697-2.438,2.305
		c-0.911,0.606-1.814,0.91-2.707,0.91c-0.679,0-1.269-0.152-1.769-0.455c-0.501-0.304-0.93-0.696-1.286-1.179
		c-0.358-0.482-0.643-1.01-0.857-1.581s-0.375-1.107-0.482-1.608c-0.107-0.571-0.161-1.429-0.161-2.572
		c0-0.893,0.054-1.884,0.161-2.975c0.107-1.089,0.286-2.117,0.536-3.081c0.25-0.965,0.59-1.813,1.019-2.546s0.964-1.224,1.608-1.474
		l1.607-0.59C85.684,36.16,85.979,36.169,86.211,36.295z"/>
	<path fill="#E22A27" d="M130.935,29.997c0.357,0,0.634,0.099,0.831,0.295c0.196,0.197,0.303,0.42,0.321,0.67
		c0.018,0.25-0.063,0.491-0.241,0.724c-0.179,0.232-0.447,0.367-0.804,0.402c-1.179,0.143-2.421,0.321-3.725,0.536
		s-2.582,0.519-3.832,0.911l-0.375,5.628c-0.25,2.715-0.482,5.412-0.697,8.092c-0.214,2.68-0.375,5.378-0.482,8.093
		c0,0.25-0.009,0.518-0.027,0.804c-0.019,0.286-0.045,0.571-0.081,0.857c-0.036,0.571-0.072,1.206-0.107,1.903
		c-0.036,0.696-0.054,1.366-0.054,2.01c0,0.821,0.044,1.616,0.134,2.385c0.089,0.768,0.25,1.474,0.482,2.117
		c0.232,0.643,0.554,1.179,0.965,1.607c0.41,0.429,0.938,0.679,1.581,0.75c0.25,0.215,0.419,0.446,0.509,0.697
		c0.089,0.249,0.107,0.482,0.054,0.696c-0.054,0.215-0.179,0.384-0.375,0.51c-0.197,0.124-0.456,0.169-0.777,0.134
		c-0.964-0.322-1.751-0.769-2.358-1.34c-0.608-0.572-1.072-1.242-1.394-2.01c-0.321-0.769-0.545-1.608-0.67-2.52
		c-0.125-0.911-0.188-1.849-0.188-2.813c0-0.643,0.008-1.305,0.027-1.982c0.018-0.68,0.044-1.358,0.081-2.037
		c0-0.286,0.018-0.607,0.053-0.965c0.035-0.357,0.054-0.679,0.054-0.964c0.107-2.608,0.259-5.207,0.456-7.798
		c0.196-2.591,0.419-5.189,0.67-7.798l0.482-5.414c-1.144,0.465-2.27,0.965-3.376,1.501c-1.108,0.536-2.162,1.108-3.162,1.714
		c-0.179,0.751-0.357,1.483-0.536,2.198c-0.179,0.715-0.375,1.429-0.59,2.144c-0.214,0.679-0.536,1.635-0.964,2.867
		c-0.429,1.232-0.983,2.403-1.662,3.51c-0.679,1.108-1.483,1.983-2.412,2.627c-0.93,0.643-2.001,0.715-3.216,0.214
		c-0.964-0.464-1.447-1.25-1.447-2.358c0-0.75,0.196-1.571,0.589-2.465c0.393-0.893,0.848-1.76,1.367-2.6
		c0.518-0.839,1.018-1.581,1.5-2.224c0.482-0.644,0.812-1.072,0.992-1.286c1.394-1.465,2.875-2.733,4.448-3.806
		c0.321-1.357,0.607-2.751,0.857-4.18c0.25-1.429,0.518-2.84,0.804-4.234c0.5-2.858,1.09-5.77,1.769-8.736
		c0.143-0.5,0.384-1.232,0.724-2.197c0.339-0.965,0.768-1.902,1.286-2.813c0.518-0.911,1.116-1.697,1.795-2.358
		c0.678-0.661,1.411-0.938,2.197-0.831c0.179,0.072,0.303,0.125,0.375,0.161c0.071,0.036,0.178,0.143,0.321,0.322
		c0.071,0.179,0.134,0.348,0.188,0.509c0.053,0.161,0.115,0.348,0.188,0.562c0.142,0.322,0.285,0.67,0.429,1.045
		c0.142,0.375,0.232,0.76,0.268,1.152c0.071,1.286,0.115,2.358,0.134,3.216c0.018,0.857,0.027,1.644,0.027,2.358
		c0,0.536-0.009,1.063-0.027,1.581c-0.019,0.519-0.045,1.09-0.081,1.715c-0.036,0.625-0.08,1.34-0.134,2.144
		c-0.054,0.804-0.116,1.742-0.188,2.813c-0.072,0.608-0.125,1.09-0.161,1.447c-0.036,0.357-0.072,0.84-0.107,1.447
		c1.179-0.356,2.367-0.634,3.564-0.831c1.197-0.196,2.42-0.366,3.671-0.509H130.935z M111.695,41.091
		c0.071-0.249,0.125-0.429,0.161-0.536c0.035-0.106,0.071-0.195,0.107-0.268c0.035-0.071,0.062-0.169,0.081-0.295
		c0.018-0.125,0.062-0.33,0.134-0.616c-0.394,0.357-0.759,0.696-1.099,1.019c-0.34,0.321-0.67,0.661-0.991,1.018
		c-0.536,0.536-0.965,1.001-1.286,1.394c-0.322,0.394-0.599,0.777-0.831,1.152c-0.232,0.375-0.447,0.777-0.643,1.206
		c-0.197,0.429-0.402,0.911-0.616,1.447c-0.072,0.072-0.143,0.206-0.214,0.401c-0.072,0.197-0.125,0.349-0.161,0.456
		c-0.036,0.072-0.081,0.196-0.134,0.375c-0.054,0.18-0.099,0.367-0.134,0.562c-0.036,0.197-0.045,0.367-0.027,0.51
		c0.018,0.143,0.081,0.196,0.188,0.16h0.054l0.697-0.16c0.178-0.071,0.402-0.135,0.67-0.188c0.268-0.054,0.473-0.116,0.616-0.188
		c0.393-0.429,0.768-0.973,1.125-1.634c0.357-0.661,0.678-1.349,0.965-2.063c0.285-0.715,0.544-1.411,0.777-2.091
		C111.364,42.074,111.551,41.52,111.695,41.091z M116.839,27.854c-0.214,1.108-0.42,2.224-0.616,3.35
		c-0.197,1.125-0.42,2.26-0.67,3.403c0.965-0.536,1.947-1.018,2.948-1.447c1-0.429,2.018-0.839,3.055-1.233l0.268-3.698l0.214-2.733
		c0.071-0.964,0.143-1.938,0.214-2.921c0.071-0.982,0.107-1.938,0.107-2.867c0-1.143-0.054-2.251-0.161-3.323
		c-0.107-1.072-0.321-2.125-0.643-3.162c-0.5,0.465-0.956,1.099-1.367,1.903c-0.411,0.804-0.769,1.661-1.072,2.572
		c-0.304,0.911-0.562,1.832-0.777,2.76c-0.214,0.93-0.394,1.769-0.536,2.519c-0.036,0.214-0.08,0.429-0.134,0.643
		s-0.099,0.411-0.134,0.589L116.839,27.854z"/>
	<path fill="#E22A27" d="M127.612,37.715c0-0.357,0.098-0.635,0.294-0.831c0.196-0.196,0.411-0.304,0.644-0.321
		c0.232-0.018,0.455,0.053,0.67,0.215c0.214,0.16,0.356,0.42,0.429,0.776v6.86c0,0.465-0.009,0.75-0.027,0.857
		c-0.019,0.107-0.027,0.179-0.027,0.214c0,0.036,0,0.107,0,0.215s0.018,0.394,0.054,0.857c0.429-1.214,0.929-2.412,1.5-3.591
		c0.571-1.179,1.232-2.286,1.983-3.323c0.286-0.321,0.607-0.481,0.965-0.481c0.071,0,0.151,0.009,0.241,0.026
		c0.088,0.019,0.169,0.026,0.241,0.026l0.59,0.054c0.071,0.072,0.169,0.18,0.295,0.322c0.125,0.143,0.205,0.214,0.241,0.214
		c0.357,0.786,0.617,1.546,0.777,2.277c0.161,0.733,0.312,1.475,0.456,2.225c0.178,1.107,0.41,2.18,0.697,3.216
		c0.286,1.036,0.821,1.894,1.608,2.572c0.214,0.25,0.303,0.501,0.268,0.75c-0.036,0.251-0.134,0.456-0.294,0.616
		c-0.161,0.161-0.375,0.269-0.643,0.322c-0.268,0.054-0.528-0.009-0.777-0.188c-0.465-0.394-0.849-0.849-1.152-1.367
		c-0.304-0.518-0.554-1.071-0.75-1.661c-0.197-0.59-0.358-1.188-0.482-1.796c-0.125-0.606-0.241-1.179-0.349-1.715
		c-0.107-0.606-0.224-1.206-0.348-1.795c-0.125-0.59-0.277-1.152-0.456-1.688c-0.786,1.215-1.412,2.448-1.876,3.698
		c-0.464,1.251-0.894,2.555-1.286,3.912l-1.018,3.162c-0.287,0.607-0.804,0.679-1.554,0.214c-0.214-0.178-0.394-0.526-0.536-1.045
		c-0.143-0.518-0.25-1.134-0.321-1.849c-0.072-0.715-0.126-1.501-0.161-2.358c-0.036-0.857-0.054-1.732-0.054-2.626
		c0-0.965,0.009-1.911,0.027-2.841c0.018-0.928,0.044-1.75,0.081-2.465c0-0.25,0.008-0.562,0.027-0.938
		C127.603,38.062,127.612,37.822,127.612,37.715z"/>
	<path fill="#E22A27" d="M142.243,35.678c0.536-0.822,1.081-1.447,1.635-1.876c0.554-0.429,1.107-0.688,1.662-0.777
		c0.553-0.089,1.107-0.044,1.661,0.134c0.554,0.179,1.099,0.447,1.635,0.804c-0.179-2.215-0.295-4.43-0.349-6.646
		c-0.053-2.215,0.009-4.341,0.188-6.377c0-0.393,0.044-1.125,0.134-2.197c0.089-1.072,0.268-2.198,0.536-3.376
		c0.268-1.179,0.67-2.259,1.206-3.243c0.536-0.982,1.268-1.616,2.197-1.902c0.643-0.178,1.197-0.054,1.662,0.375
		c0.464,0.429,0.848,1.037,1.152,1.822c0.303,0.786,0.544,1.67,0.723,2.653c0.179,0.983,0.312,1.929,0.402,2.84
		c0.088,0.911,0.142,1.725,0.161,2.438c0.018,0.715,0.027,1.179,0.027,1.394c0,3.788-0.482,7.468-1.447,11.041
		c-0.964,3.573-2.269,7.128-3.912,10.665c0.178,1.071,0.339,2.135,0.482,3.188c0.142,1.055,0.303,2.046,0.482,2.975
		c0.321,1.822,0.67,3.617,1.045,5.386c0.375,1.77,0.821,3.511,1.34,5.226c0.518,1.715,1.143,3.412,1.875,5.092
		c0.732,1.679,1.616,3.34,2.653,4.984c0.071,0.429-0.072,0.731-0.429,0.911c-0.357,0.178-0.732,0.088-1.125-0.269
		c-1.215-1.894-2.26-3.814-3.135-5.761c-0.876-1.948-1.617-3.922-2.224-5.923c-0.608-2.001-1.117-4.028-1.528-6.082
		c-0.411-2.055-0.742-4.136-0.991-6.244c-0.143,0.18-0.233,0.26-0.268,0.241c-0.036-0.018-0.089,0.062-0.161,0.241
		c-0.143,0.286-0.384,0.724-0.724,1.313c-0.34,0.589-0.75,1.197-1.232,1.821c-0.482,0.626-1.019,1.206-1.608,1.742
		c-0.59,0.536-1.225,0.894-1.903,1.072c-0.929,0.214-1.697,0.16-2.304-0.161c-0.608-0.321-1.099-0.759-1.474-1.313
		c-0.375-0.553-0.643-1.169-0.804-1.849c-0.161-0.678-0.241-1.268-0.241-1.769c0.072-2.107,0.286-4.251,0.643-6.432
		C140.242,39.662,141.028,37.607,142.243,35.678z M148.835,36.214c-2.465-2.5-4.467-1.572-6.002,2.787
		c-0.357,0.93-0.688,1.93-0.992,3.001c-0.304,1.072-0.509,2.153-0.616,3.242c-0.107,1.091-0.072,2.162,0.107,3.216
		c0.178,1.055,0.589,2.028,1.232,2.921c0.786,0.072,1.447-0.035,1.983-0.321c0.536-0.286,0.992-0.67,1.367-1.152
		s0.714-1.009,1.018-1.581c0.303-0.571,0.617-1.126,0.938-1.661c0.286-0.536,0.571-1.054,0.857-1.555
		c0.286-0.5,0.571-1.036,0.858-1.607L148.835,36.214z M150.711,35.517c0.285,0.322,0.553,0.635,0.804,0.938
		c0.25,0.305,0.464,0.635,0.643,0.991c0.857-2.465,1.545-4.975,2.063-7.53c0.518-2.554,0.777-5.1,0.777-7.637
		c0-0.429-0.027-1.099-0.08-2.01c-0.054-0.911-0.152-1.857-0.295-2.84c-0.143-0.982-0.304-1.911-0.482-2.787
		c-0.179-0.875-0.411-1.5-0.697-1.876c-0.286-0.375-0.599-0.393-0.938-0.053c-0.34,0.34-0.723,1.206-1.152,2.599
		c-0.287,1.037-0.492,2.063-0.617,3.082c-0.125,1.019-0.224,2.046-0.294,3.082c-0.072,1.394-0.107,2.796-0.107,4.207
		c0,1.412,0.018,2.814,0.054,4.208C150.424,31.605,150.531,33.48,150.711,35.517z"/>
	<path fill="#E22A27" d="M157.195,37.018c0.214-0.393,0.563-0.598,1.045-0.616c0.482-0.018,0.812,0.277,0.991,0.885v2.357
		c0,0.501-0.009,0.983-0.027,1.447c-0.019,0.465-0.027,0.947-0.027,1.447c0,1.107,0.035,2.216,0.107,3.322
		c0.071,1.108,0.196,2.216,0.375,3.323c0,0.144,0.018,0.286,0.054,0.429c0.035,0.286,0.089,0.626,0.161,1.019
		c0.071,0.394,0.161,0.769,0.268,1.125c0.107,0.357,0.232,0.67,0.375,0.938c0.143,0.268,0.322,0.401,0.536,0.401
		c0.536,0.036,1.072-0.205,1.608-0.724c0.536-0.518,1.018-1.009,1.447-1.474l0.482-0.643c0.286-0.215,0.563-0.312,0.831-0.295
		c0.268,0.019,0.482,0.125,0.643,0.321c0.161,0.197,0.241,0.429,0.241,0.696c0,0.269-0.107,0.528-0.321,0.777l-0.482,0.59
		c-0.179,0.179-0.394,0.402-0.643,0.67c-0.25,0.268-0.465,0.49-0.643,0.67c-0.536,0.5-1.081,0.875-1.635,1.125
		c-0.554,0.25-1.027,0.376-1.42,0.376c-0.75,0-1.393-0.305-1.929-0.911c-0.536-0.608-0.947-1.465-1.232-2.573v-0.054
		c-0.107-0.321-0.161-0.606-0.161-0.857c-0.036,0.394-0.053,0.777-0.053,1.152s0,0.76,0,1.152c-0.107,0.644-0.411,0.956-0.911,0.938
		c-0.501-0.019-0.894-0.277-1.179-0.777L157.195,37.018z M157.838,31.069c0.357,0,0.634,0.099,0.831,0.295
		c0.196,0.197,0.294,0.411,0.294,0.643c0,0.233-0.089,0.465-0.268,0.697c-0.179,0.233-0.447,0.367-0.804,0.402h-0.429
		c-0.357-0.035-0.608-0.169-0.75-0.402c-0.143-0.232-0.206-0.464-0.188-0.697c0.018-0.232,0.134-0.446,0.349-0.643
		c0.214-0.196,0.482-0.295,0.804-0.295H157.838z"/>
	<path fill="#E22A27" d="M165.824,37.715c0-0.357,0.098-0.635,0.294-0.831c0.196-0.196,0.411-0.304,0.644-0.321
		c0.232-0.018,0.455,0.053,0.67,0.215c0.214,0.16,0.356,0.42,0.429,0.776v6.86c0,0.465-0.009,0.75-0.027,0.857
		c-0.019,0.107-0.027,0.179-0.027,0.214c0,0.036,0,0.107,0,0.215s0.018,0.394,0.054,0.857c0.429-1.214,0.929-2.412,1.5-3.591
		c0.571-1.179,1.232-2.286,1.982-3.323c0.286-0.321,0.607-0.481,0.965-0.481c0.071,0,0.152,0.009,0.241,0.026
		c0.089,0.019,0.17,0.026,0.241,0.026l0.59,0.054c0.071,0.072,0.169,0.18,0.295,0.322c0.125,0.143,0.205,0.214,0.241,0.214
		c0.356,0.786,0.616,1.546,0.776,2.277c0.161,0.733,0.312,1.475,0.456,2.225c0.179,1.107,0.41,2.18,0.696,3.216
		s0.822,1.894,1.608,2.572c0.214,0.25,0.303,0.501,0.268,0.75c-0.036,0.251-0.134,0.456-0.295,0.616
		c-0.16,0.161-0.375,0.269-0.643,0.322c-0.269,0.054-0.527-0.009-0.777-0.188c-0.465-0.394-0.849-0.849-1.152-1.367
		c-0.304-0.518-0.555-1.071-0.75-1.661c-0.197-0.59-0.357-1.188-0.482-1.796c-0.126-0.606-0.241-1.179-0.349-1.715
		c-0.107-0.606-0.224-1.206-0.349-1.795c-0.125-0.59-0.276-1.152-0.455-1.688c-0.786,1.215-1.412,2.448-1.876,3.698
		c-0.464,1.251-0.894,2.555-1.286,3.912l-1.018,3.162c-0.287,0.607-0.804,0.679-1.554,0.214c-0.214-0.178-0.394-0.526-0.536-1.045
		c-0.143-0.518-0.25-1.134-0.321-1.849c-0.072-0.715-0.126-1.501-0.161-2.358c-0.036-0.857-0.054-1.732-0.054-2.626
		c0-0.965,0.009-1.911,0.027-2.841c0.018-0.928,0.044-1.75,0.081-2.465c0-0.25,0.008-0.562,0.027-0.938
		C165.815,38.062,165.824,37.822,165.824,37.715z"/>
	<path fill="#E22A27" d="M183.376,36.295c0.231,0.125,0.393,0.303,0.482,0.535c0.089,0.232,0.089,0.482,0,0.751
		c-0.09,0.268-0.295,0.491-0.617,0.67l-0.643,0.106h0.161c-0.429,0.144-0.716,0.251-0.857,0.322c-0.43,0.321-0.796,0.769-1.1,1.34
		s-0.554,1.197-0.75,1.875c-0.196,0.68-0.331,1.394-0.401,2.145c-0.072,0.75-0.107,1.482-0.107,2.197c0,0.5,0.008,0.982,0.026,1.446
		c0.018,0.465,0.062,0.876,0.134,1.233s0.17,0.723,0.295,1.099c0.125,0.375,0.276,0.724,0.456,1.045
		c0.178,0.321,0.41,0.589,0.696,0.804s0.644,0.34,1.072,0.375c0.714,0.072,1.384-0.125,2.01-0.59
		c0.624-0.464,1.16-1.062,1.607-1.795c0.446-0.731,0.795-1.545,1.045-2.438c0.25-0.893,0.375-1.75,0.375-2.572
		c0-0.929-0.179-1.697-0.535-2.305c-0.18-0.356-0.536-0.598-1.072-0.724c-0.536-0.125-1.09-0.259-1.661-0.402l-1.232-0.321
		c-0.429-0.285-0.644-0.651-0.644-1.099c0-0.446,0.25-0.741,0.75-0.884c1.608-0.179,3.144-0.402,4.609-0.67
		c1.465-0.269,2.947-0.563,4.448-0.885c0.321,0,0.59,0.08,0.804,0.241c0.215,0.161,0.349,0.349,0.402,0.562
		c0.054,0.215,0.035,0.438-0.054,0.67c-0.09,0.233-0.277,0.421-0.562,0.563l-1.822,0.375c-0.357,0.071-0.644,0.134-0.857,0.188
		c-0.215,0.054-0.421,0.107-0.616,0.16c-0.197,0.054-0.421,0.1-0.67,0.135c-0.251,0.035-0.555,0.071-0.911,0.106
		c0.356,0.251,0.66,0.572,0.911,0.965c0,0.036,0.053,0.152,0.16,0.349s0.196,0.385,0.269,0.562l0.321,0.804v-0.054
		c0.143,0.287,0.241,0.59,0.295,0.911c0.054,0.322,0.08,0.626,0.08,0.911c0,0.965-0.224,1.992-0.67,3.082
		c-0.447,1.09-1.027,2.1-1.742,3.028c-0.715,0.93-1.527,1.697-2.438,2.305c-0.911,0.606-1.813,0.91-2.706,0.91
		c-0.679,0-1.269-0.152-1.769-0.455c-0.501-0.304-0.93-0.696-1.286-1.179c-0.357-0.482-0.644-1.01-0.857-1.581
		c-0.215-0.571-0.375-1.107-0.482-1.608c-0.107-0.571-0.161-1.429-0.161-2.572c0-0.893,0.054-1.884,0.161-2.975
		c0.107-1.089,0.285-2.117,0.536-3.081c0.249-0.965,0.589-1.813,1.018-2.546s0.965-1.224,1.608-1.474l1.607-0.59
		C182.848,36.16,183.143,36.169,183.376,36.295z"/>
</g>
</svg>
