<?xml version="1.0" encoding="utf-8"?>
<!-- Generator: Adobe Illustrator 16.0.0, SVG Export Plug-In . SVG Version: 6.00 Build 0)  -->
<!DOCTYPE svg PUBLIC "-//W3C//DTD SVG 1.1//EN" "http://www.w3.org/Graphics/SVG/1.1/DTD/svg11.dtd">
<svg version="1.1" id="Layer_1" xmlns="http://www.w3.org/2000/svg" xmlns:xlink="http://www.w3.org/1999/xlink" x="0px" y="0px"
	 width="224.16px" height="51.752px" viewBox="0 0 224.16 51.752" enable-background="new 0 0 224.16 51.752" xml:space="preserve">
<g>
	<path fill="#E12B28" d="M16.652,16.111c1.6-0.759,3-0.859,4.2-0.3c0.519,0.24,0.849,0.6,0.989,1.08
		c0.141,0.479,0.15,1.28,0.031,2.4c-0.161,1.319-0.381,2.41-0.66,3.27c-0.281,0.86-0.761,1.851-1.44,2.97
		c-0.44,0.721-0.82,1.211-1.14,1.471c-0.32,0.26-0.701,0.39-1.141,0.39c-0.52,0-0.779-0.229-0.779-0.69
		c0-0.459,0.24-0.869,0.72-1.229c0.759-0.48,1.5-1.779,2.22-3.9c0.439-1.319,0.54-2.539,0.301-3.66
		c-0.121-0.519-0.421-0.779-0.9-0.779c-1.24,0-3.201,1.221-5.881,3.66c-1.6,1.439-2.92,2.79-3.959,4.05
		c-1.041,1.26-2.08,2.75-3.121,4.47c-1.319,2.2-2.289,4.14-2.909,5.82c-0.62,1.68-1.05,3.54-1.29,5.58
		c-0.12,1.319,0.02,2.48,0.42,3.479c0.48,1.281,1.34,2.101,2.58,2.46c0.48,0.12,1.299,0.19,2.46,0.21
		c1.159,0.021,2.159-0.069,3-0.27c3.079-0.76,4.96-1.28,5.64-1.561c1.359-0.56,2.4-1.02,3.12-1.38c0.04-0.039,0.37-0.24,0.99-0.6
		c0.62-0.36,1.029-0.601,1.229-0.72c0.121-0.08,0.25-0.16,0.391-0.24c0.14-0.08,0.249-0.15,0.33-0.21
		c0.08-0.061,0.17-0.12,0.27-0.181c0.1-0.06,0.17-0.09,0.21-0.09s0.08,0.021,0.12,0.061c0.68,1.04-0.141,2.061-2.46,3.06
		c-0.16,0.081-0.479,0.24-0.96,0.48c0,0.04-0.08,0.09-0.24,0.149c-0.16,0.061-0.33,0.141-0.51,0.24
		c-0.18,0.101-0.351,0.19-0.51,0.27c-0.16,0.081-0.51,0.221-1.051,0.421c-0.539,0.2-0.85,0.32-0.93,0.359
		c-0.28,0.16-0.63,0.3-1.05,0.42s-0.94,0.251-1.56,0.391c-0.621,0.141-1.031,0.25-1.23,0.33c-1.16,0.32-2.5,0.52-4.02,0.6
		c-1.521,0.081-2.781,0.04-3.78-0.12c-1.04-0.199-2.04-0.9-3-2.1c-1.04-1.16-1.48-2.82-1.32-4.98c0.159-2.6,0.9-5.34,2.22-8.22
		c0.961-2.16,2.05-4.11,3.271-5.851c1.22-1.739,2.77-3.609,4.649-5.609C12.893,18.671,15.053,16.872,16.652,16.111z"/>
	<path fill="#E12B28" d="M23.643,36.001c0.299-0.62,0.539-0.99,0.719-1.11c0.181-0.12,0.451-0.18,0.811-0.18s0.5,0.261,0.42,0.779
		c0,0.041-0.141,0.521-0.42,1.44c-0.201,0.72-0.221,1.56-0.061,2.52c0.16,1.32,0.451,2.23,0.871,2.73
		c0.42,0.501,0.908,0.53,1.469,0.09c0.24-0.199,0.48-0.6,0.721-1.2c0.24-0.6,0.34-1.06,0.3-1.38c0-0.159-0.06-0.27-0.18-0.33
		c-0.12-0.06-0.44-0.109-0.96-0.149c-0.681,0-1.101-0.08-1.26-0.24c-0.16-0.12-0.23-0.5-0.211-1.14s0.121-1.141,0.301-1.5
		c0.18-0.36,0.48-0.66,0.9-0.9s0.829-0.36,1.229-0.36c0.319,0,0.579,0.081,0.78,0.24c0.199,0.16,0.52,0.521,0.959,1.08l0.42,0.54
		l0.9-0.36c1.08-0.479,1.7-0.479,1.86,0c0.12,0.321,0.069,0.591-0.149,0.811c-0.221,0.22-0.651,0.43-1.291,0.63
		c-0.561,0.16-0.92,0.34-1.08,0.54s-0.359,0.82-0.6,1.859c-0.48,2.201-1.29,3.551-2.43,4.051c-1.141,0.5-2.211-0.03-3.211-1.591
		c-0.8-1.199-1.199-2.6-1.199-4.199C23.211,37.511,23.342,36.622,23.643,36.001z M28.652,37.411c-0.041-0.319-0.181-0.51-0.42-0.569
		c-0.24-0.061-0.4,0.051-0.48,0.33c-0.12,0.479,0.061,0.72,0.54,0.72C28.571,37.891,28.691,37.732,28.652,37.411z"/>
	<path fill="#E12B28" d="M34.172,35.971c1.119-0.48,1.82-0.399,2.1,0.24c0.12,0.32,0.18,0.96,0.18,1.92
		c0,0.239-0.01,0.53-0.029,0.87c-0.021,0.34-0.03,0.561-0.03,0.659c0,0.101,0.021,0.19,0.06,0.271c0,0.04,0.04,0.03,0.121-0.03
		c0.079-0.06,0.189-0.159,0.33-0.3c0.139-0.14,0.249-0.27,0.33-0.39c0.079-0.12,0.219-0.279,0.42-0.48
		c0.079-0.079,0.139-0.14,0.18-0.18c0.999-1.119,1.84-1.7,2.52-1.74c0.399,0,0.67,0.16,0.811,0.48
		c0.139,0.32,0.289,1.12,0.449,2.399c0.2,1.48,0.36,2.5,0.48,3.061c0.12,0.479,0.42,0.72,0.9,0.72c0.479,0,0.959-0.3,1.439-0.9
		c0.199-0.239,0.459-0.459,0.78-0.66c0.12-0.039,0.21-0.009,0.271,0.091c0.06,0.1,0.09,0.25,0.09,0.449
		c0,0.081,0.009,0.19,0.029,0.33c0.02,0.141,0.02,0.24,0,0.301c-0.021,0.06-0.06,0.16-0.119,0.3c-0.061,0.141-0.15,0.29-0.271,0.45
		c-0.761,0.92-1.551,1.38-2.37,1.38c-0.82,0-1.431-0.35-1.83-1.051c-0.4-0.699-0.74-1.909-1.02-3.63
		c-0.041-0.199-0.07-0.42-0.09-0.66c-0.021-0.239-0.051-0.479-0.09-0.72c-0.082-0.079-0.301,0.07-0.66,0.45
		c-0.36,0.381-0.82,0.95-1.381,1.71c-0.561,0.761-1.16,1.62-1.8,2.58c-0.521,0.761-0.91,1.24-1.17,1.44c-0.261,0.2-0.55,0.2-0.87,0
		c-0.24-0.16-0.351-0.399-0.33-0.721c0.02-0.319,0.189-1.1,0.51-2.34c0.279-0.96,0.5-2.16,0.66-3.6c0.12-0.721,0.15-1.13,0.09-1.23
		c-0.06-0.1-0.311-0.05-0.75,0.15c-0.439,0.24-0.801,0.16-1.08-0.24c-0.119-0.159-0.06-0.38,0.181-0.66
		C33.451,36.412,33.771,36.171,34.172,35.971z"/>
	<path fill="#E12B28" d="M57.812,0.211c0.6-0.36,0.899-0.26,0.899,0.3c0,0.521-0.26,2.04-0.779,4.56
		c-2.201,10.44-3.682,17.661-4.44,21.66c-0.681,3.72-1.021,5.88-1.021,6.48c0,0.08-0.02,0.18-0.06,0.3s-0.05,0.2-0.03,0.24
		s0.11,0.09,0.271,0.149c0.159,0.061,0.39,0.101,0.69,0.12c0.299,0.021,0.77,0.07,1.41,0.15c1.359,0.08,2.27,0.21,2.729,0.39
		s0.609,0.471,0.45,0.87c-0.041,0.08-0.07,0.15-0.09,0.21c-0.021,0.06-0.061,0.12-0.121,0.18c-0.06,0.061-0.109,0.101-0.149,0.12
		c-0.04,0.021-0.12,0.03-0.239,0.03c-0.121,0-0.231,0-0.33,0c-0.102,0-0.251,0-0.451,0s-0.39-0.01-0.569-0.03
		c-0.181-0.02-0.431-0.039-0.75-0.06c-0.321-0.02-0.641-0.03-0.96-0.03c-1-0.08-1.641-0.109-1.92-0.09
		c-0.281,0.021-0.461,0.171-0.54,0.45c-0.2,0.76-0.46,2.391-0.78,4.89c-0.32,2.5-0.561,4.69-0.72,6.57
		c-0.2,2.76-0.501,4.12-0.9,4.08c-0.12,0-0.261-0.14-0.42-0.42c-0.36-0.68-0.239-3.88,0.36-9.601c0.08-0.879,0.189-1.839,0.33-2.88
		c0.139-1.04,0.27-2.12,0.39-3.24c-0.081-0.079-0.64-0.18-1.681-0.3c-1-0.159-1.72-0.31-2.159-0.45c-0.44-0.14-0.66-0.289-0.66-0.45
		c0-0.159,0.021-0.339,0.06-0.54c0.081-0.319,0.321-0.499,0.721-0.539c0.398-0.04,1.18,0,2.34,0.119
		c1.199,0.12,1.82,0.161,1.859,0.12c0.16-1.039,0.32-2.06,0.48-3.06s0.32-1.96,0.48-2.88c0.759-3.92,1.839-9.2,3.24-15.84
		c0.318-1.479,0.68-3.11,1.08-4.891c0.398-1.779,0.699-3.12,0.899-4.02c0.2-0.9,0.3-1.37,0.3-1.41c0-0.159,0.09-0.38,0.27-0.66
		C57.481,0.532,57.65,0.332,57.812,0.211z"/>
	<path fill="#E12B28" d="M61.411,35.071c0.64-0.199,1.351-0.199,2.13,0c0.78,0.201,1.25,0.501,1.41,0.9c0.12,0.32,0.12,0.88,0,1.68
		c-0.4,2.961-0.44,4.78-0.12,5.46c0.159,0.24,0.29,0.351,0.39,0.33c0.1-0.02,0.369-0.21,0.811-0.57
		c0.84-0.68,1.32-0.799,1.439-0.359c0.04,0.08,0.04,0.22,0,0.42c-0.119,0.32-0.479,0.79-1.08,1.41c-0.6,0.62-1.1,0.97-1.5,1.05
		c-0.439,0.12-0.74,0.09-0.899-0.09c-0.16-0.181-0.36-0.75-0.601-1.71c-0.08-0.279-0.149-0.601-0.209-0.96
		c-0.061-0.36-0.101-0.65-0.121-0.87c-0.02-0.22-0.05-0.33-0.09-0.33c-0.119-0.12-0.66,0.4-1.619,1.56
		c-1.32,1.601-2.381,2.301-3.181,2.101c-0.28-0.08-0.479-0.22-0.6-0.42s-0.261-0.62-0.42-1.261c-0.28-1.159,0.099-2.769,1.14-4.829
		C59.331,36.521,60.371,35.351,61.411,35.071z M63.151,37.292c-0.161-0.399-0.44-0.601-0.841-0.601s-0.84,0.201-1.319,0.601
		c-1.12,1-1.86,2.42-2.22,4.26c-0.24,1.08-0.24,1.62,0,1.62s0.759-0.5,1.56-1.5c0.12-0.12,0.279-0.301,0.479-0.54
		c0.52-0.64,0.9-1.11,1.141-1.41s0.489-0.64,0.75-1.021c0.26-0.379,0.42-0.669,0.48-0.869C63.241,37.631,63.23,37.452,63.151,37.292
		z"/>
	<path fill="#E12B28" d="M73.771,34.171c1.8-0.88,3.039-0.96,3.72-0.24c0.36,0.36,0.54,0.61,0.54,0.75c0,0.141-0.12,0.45-0.36,0.93
		c-0.2,0.4-0.479,0.61-0.84,0.63c-0.36,0.021-0.64-0.149-0.84-0.51c-0.161-0.279-0.36-0.409-0.601-0.39
		c-0.24,0.021-0.66,0.21-1.26,0.569c-1.32,0.841-2.41,1.941-3.27,3.301c-0.861,1.36-1.15,2.601-0.87,3.72
		c0.319,1.32,1.76,1.721,4.319,1.2c0.84-0.159,2.101-0.66,3.781-1.5c1.279-0.64,1.92-0.84,1.92-0.601
		c0.039,0.16-0.041,0.441-0.24,0.84c-0.48,1.2-2.34,2.121-5.58,2.761c-0.881,0.2-1.811,0.23-2.791,0.09
		c-0.98-0.14-1.67-0.43-2.069-0.87c-1.2-1.359-1.52-2.94-0.96-4.74c0.32-0.84,1.07-1.929,2.25-3.27
		C71.801,35.501,72.851,34.612,73.771,34.171z"/>
	<path fill="#E12B28" d="M91.771,0.211c0.6-0.36,0.899-0.26,0.899,0.3c0,0.521-0.26,2.04-0.779,4.56
		c-2.201,10.44-3.682,17.661-4.44,21.66c-0.681,3.72-1.021,5.88-1.021,6.48c0,0.08-0.02,0.18-0.06,0.3s-0.05,0.2-0.03,0.24
		s0.11,0.09,0.271,0.149c0.159,0.061,0.39,0.101,0.69,0.12c0.299,0.021,0.77,0.07,1.41,0.15c1.359,0.08,2.27,0.21,2.729,0.39
		s0.609,0.471,0.45,0.87c-0.041,0.08-0.07,0.15-0.09,0.21c-0.021,0.06-0.061,0.12-0.121,0.18c-0.06,0.061-0.109,0.101-0.149,0.12
		c-0.04,0.021-0.12,0.03-0.239,0.03c-0.121,0-0.231,0-0.33,0c-0.102,0-0.251,0-0.451,0s-0.39-0.01-0.569-0.03
		c-0.181-0.02-0.431-0.039-0.75-0.06c-0.321-0.02-0.641-0.03-0.96-0.03c-1-0.08-1.641-0.109-1.92-0.09
		c-0.281,0.021-0.461,0.171-0.54,0.45c-0.2,0.76-0.46,2.391-0.78,4.89c-0.32,2.5-0.561,4.69-0.72,6.57
		c-0.2,2.76-0.501,4.12-0.9,4.08c-0.12,0-0.261-0.14-0.42-0.42c-0.36-0.68-0.239-3.88,0.36-9.601c0.08-0.879,0.189-1.839,0.33-2.88
		c0.139-1.04,0.27-2.12,0.39-3.24c-0.081-0.079-0.64-0.18-1.681-0.3c-1-0.159-1.72-0.31-2.159-0.45c-0.44-0.14-0.66-0.289-0.66-0.45
		c0-0.159,0.021-0.339,0.06-0.54c0.081-0.319,0.321-0.499,0.721-0.539c0.398-0.04,1.18,0,2.34,0.119
		c1.199,0.12,1.82,0.161,1.859,0.12c0.16-1.039,0.32-2.06,0.48-3.06s0.32-1.96,0.48-2.88c0.759-3.92,1.839-9.2,3.24-15.84
		c0.318-1.479,0.68-3.11,1.08-4.891c0.398-1.779,0.699-3.12,0.899-4.02c0.2-0.9,0.3-1.37,0.3-1.41c0-0.159,0.09-0.38,0.27-0.66
		C91.44,0.532,91.609,0.332,91.771,0.211z"/>
	<path fill="#E12B28" d="M91.32,36.001c0.3-0.62,0.54-0.99,0.72-1.11c0.181-0.12,0.45-0.18,0.81-0.18c0.36,0,0.5,0.261,0.42,0.779
		c0,0.041-0.141,0.521-0.42,1.44c-0.2,0.72-0.22,1.56-0.06,2.52c0.159,1.32,0.45,2.23,0.87,2.73c0.42,0.501,0.909,0.53,1.47,0.09
		c0.24-0.199,0.48-0.6,0.72-1.2c0.24-0.6,0.34-1.06,0.301-1.38c0-0.159-0.061-0.27-0.18-0.33c-0.121-0.06-0.441-0.109-0.961-0.149
		c-0.68,0-1.1-0.08-1.26-0.24c-0.16-0.12-0.23-0.5-0.21-1.14c0.02-0.64,0.12-1.141,0.3-1.5c0.18-0.36,0.48-0.66,0.9-0.9
		s0.83-0.36,1.23-0.36c0.319,0,0.578,0.081,0.779,0.24c0.199,0.16,0.52,0.521,0.96,1.08l0.42,0.54l0.9-0.36
		c1.08-0.479,1.7-0.479,1.86,0c0.119,0.321,0.068,0.591-0.15,0.811c-0.221,0.22-0.65,0.43-1.29,0.63
		c-0.561,0.16-0.921,0.34-1.08,0.54c-0.16,0.2-0.36,0.82-0.601,1.859c-0.479,2.201-1.289,3.551-2.43,4.051
		c-1.14,0.5-2.211-0.03-3.21-1.591c-0.8-1.199-1.2-2.6-1.2-4.199C90.89,37.511,91.02,36.622,91.32,36.001z M96.33,37.411
		c-0.04-0.319-0.18-0.51-0.42-0.569c-0.24-0.061-0.4,0.051-0.48,0.33c-0.119,0.479,0.061,0.72,0.541,0.72
		C96.25,37.891,96.369,37.732,96.33,37.411z"/>
	<path fill="#E12B28" d="M122.609,34.171c1.801-0.88,3.039-0.96,3.721-0.24c0.359,0.36,0.539,0.61,0.539,0.75
		c0,0.141-0.119,0.45-0.359,0.93c-0.201,0.4-0.48,0.61-0.84,0.63c-0.36,0.021-0.641-0.149-0.84-0.51
		c-0.161-0.279-0.36-0.409-0.601-0.39c-0.24,0.021-0.66,0.21-1.26,0.569c-1.32,0.841-2.411,1.941-3.271,3.301
		c-0.86,1.36-1.15,2.601-0.869,3.72c0.319,1.32,1.76,1.721,4.319,1.2c0.84-0.159,2.101-0.66,3.78-1.5
		c1.279-0.64,1.92-0.84,1.92-0.601c0.039,0.16-0.041,0.441-0.24,0.84c-0.48,1.2-2.34,2.121-5.58,2.761
		c-0.88,0.2-1.811,0.23-2.79,0.09c-0.98-0.14-1.671-0.43-2.069-0.87c-1.2-1.359-1.52-2.94-0.961-4.74
		c0.32-0.84,1.07-1.929,2.25-3.27C120.639,35.501,121.689,34.612,122.609,34.171z"/>
	<path fill="#E12B28" d="M129.359,36.001c0.299-0.62,0.539-0.99,0.719-1.11c0.181-0.12,0.451-0.18,0.811-0.18s0.5,0.261,0.42,0.779
		c0,0.041-0.141,0.521-0.42,1.44c-0.201,0.72-0.221,1.56-0.061,2.52c0.16,1.32,0.451,2.23,0.871,2.73
		c0.42,0.501,0.908,0.53,1.469,0.09c0.24-0.199,0.48-0.6,0.721-1.2c0.24-0.6,0.34-1.06,0.3-1.38c0-0.159-0.06-0.27-0.18-0.33
		c-0.12-0.06-0.44-0.109-0.96-0.149c-0.681,0-1.101-0.08-1.26-0.24c-0.16-0.12-0.23-0.5-0.211-1.14s0.121-1.141,0.301-1.5
		c0.18-0.36,0.48-0.66,0.9-0.9s0.829-0.36,1.229-0.36c0.319,0,0.579,0.081,0.78,0.24c0.199,0.16,0.52,0.521,0.959,1.08l0.42,0.54
		l0.9-0.36c1.08-0.479,1.7-0.479,1.86,0c0.12,0.321,0.069,0.591-0.149,0.811c-0.221,0.22-0.651,0.43-1.291,0.63
		c-0.561,0.16-0.92,0.34-1.08,0.54s-0.359,0.82-0.6,1.859c-0.48,2.201-1.29,3.551-2.43,4.051c-1.141,0.5-2.211-0.03-3.211-1.591
		c-0.8-1.199-1.199-2.6-1.199-4.199C128.928,37.511,129.059,36.622,129.359,36.001z M134.369,37.411
		c-0.041-0.319-0.181-0.51-0.42-0.569c-0.24-0.061-0.4,0.051-0.48,0.33c-0.12,0.479,0.061,0.72,0.54,0.72
		C134.288,37.891,134.408,37.732,134.369,37.411z"/>
	<path fill="#E12B28" d="M141.748,32.971c0.08-0.601,0.17-0.99,0.27-1.17c0.1-0.181,0.271-0.271,0.511-0.271
		c0.399,0,0.64,0.131,0.72,0.391c0.08,0.261,0.061,0.79-0.061,1.59c-0.08,0.6-0.29,1.53-0.629,2.79
		c-0.341,1.26-0.611,2.17-0.811,2.729l0.6-0.54l0.121-0.12c0.359-0.359,0.639-0.659,0.84-0.899c1.279-1.239,2.189-2.05,2.729-2.43
		s0.99-0.53,1.351-0.45c0.439,0.12,0.75,0.41,0.93,0.87s0.289,1.229,0.33,2.31c0,1.24,0.049,1.86,0.15,1.86
		c0.099,0,0.668-0.54,1.709-1.62c0.88-0.96,1.539-1.58,1.98-1.86c0.439-0.279,0.859-0.38,1.26-0.3c1.4,0.36,2.1,2.001,2.1,4.92
		c0,0.72,0.121,1.251,0.36,1.59c0.24,0.341,0.601,0.61,1.08,0.811c0.92,0.4,1.839,0.08,2.761-0.96c0.199-0.24,0.42-0.14,0.659,0.3
		c0.24,0.359,0.24,0.681,0,0.96c-0.761,1-1.66,1.48-2.7,1.439c-1.16-0.039-2.1-0.369-2.82-0.989c-0.719-0.62-1.08-1.83-1.08-3.63
		c0-0.561-0.059-1.12-0.18-1.681c-0.119-0.56-0.22-0.879-0.3-0.96c-0.16-0.079-0.42,0.04-0.78,0.36c-0.359,0.32-1.08,1.04-2.16,2.16
		c-1.84,1.92-2.879,2.88-3.119,2.88c-0.6,0-0.94-0.24-1.02-0.72c-0.082-0.48,0-1.521,0.239-3.12c0.2-1.479,0.24-2.3,0.12-2.46
		c-0.24-0.2-0.73,0.05-1.471,0.75s-1.539,1.619-2.399,2.76c-0.86,1.14-1.53,2.23-2.01,3.27c-0.72,1.48-1.2,2.221-1.44,2.221
		c-0.72,0-1.08-0.26-1.08-0.78c0-0.36,0.141-1.13,0.42-2.311c0.279-1.179,0.52-1.989,0.721-2.43c0.199-0.52,0.42-1.26,0.66-2.22
		c0.039-0.24,0.158-0.609,0.359-1.11c0.199-0.499,0.36-0.949,0.48-1.35C141.348,34.792,141.547,33.931,141.748,32.971z"/>
	<path fill="#E12B28" d="M165.148,36.511c0.959-0.72,1.579-1.13,1.859-1.23c0.279-0.099,0.64-0.029,1.08,0.21
		c1,0.521,1.26,1.5,0.78,2.94c-0.841,2.48-2.74,4.24-5.7,5.28c-0.359,0.12-0.52,0.359-0.48,0.72c0.24,1.36,1.4,1.38,3.48,0.06
		c0.24-0.159,0.56-0.379,0.96-0.659c1.04-0.64,1.67-1.021,1.89-1.141s0.43-0.12,0.631,0c0.359,0.4,0.488,0.72,0.39,0.96
		c-0.101,0.24-0.45,0.561-1.05,0.96c-0.12,0.041-0.51,0.261-1.17,0.66c-0.66,0.4-1.15,0.7-1.471,0.9
		c-1.68,1.16-3.119,1.28-4.32,0.359c-0.76-0.52-1.159-1.299-1.199-2.34c-0.039-1.039,0.3-2.259,1.02-3.66
		c0.08-0.12,0.189-0.319,0.33-0.6c0.141-0.279,0.24-0.47,0.301-0.57c0.06-0.1,0.158-0.27,0.299-0.51s0.271-0.43,0.391-0.57
		c0.12-0.14,0.279-0.309,0.48-0.51c0.199-0.199,0.42-0.399,0.66-0.6C164.548,36.971,164.828,36.751,165.148,36.511z M166.708,38.851
		c0.68-1.04,0.79-1.53,0.33-1.47c-0.46,0.06-1.251,0.67-2.37,1.83c-0.4,0.4-0.74,0.81-1.02,1.229c-0.281,0.42-0.471,0.75-0.57,0.99
		c-0.101,0.24-0.111,0.381-0.03,0.42c0.159,0.2,0.69-0.069,1.591-0.81C165.538,40.301,166.229,39.571,166.708,38.851z"/>
	<path fill="#E12B28" d="M173.848,34.051c0.399-0.2,0.699-0.29,0.9-0.271c0.199,0.021,0.578,0.171,1.14,0.45
		c0.64,0.32,1.5,0.44,2.579,0.36c1.561-0.159,2.439,0.1,2.641,0.779c0.199,0.641-0.32,2.081-1.561,4.32
		c-1.359,2.48-1.92,3.86-1.68,4.141c0.12,0.119,0.439,0.18,0.961,0.18c0.199,0,0.398-0.01,0.6-0.03c0.199-0.02,0.398-0.05,0.6-0.09
		c0.199-0.039,0.36-0.08,0.48-0.12c0.119-0.039,0.289-0.109,0.51-0.21c0.219-0.1,0.379-0.18,0.48-0.24
		c0.099-0.06,0.27-0.159,0.51-0.3c0.24-0.14,0.379-0.22,0.42-0.24c0.039-0.02,0.189-0.109,0.449-0.27
		c0.26-0.159,0.41-0.26,0.451-0.3c0.359-0.24,0.689-0.301,0.989-0.181s0.409,0.4,0.33,0.84c-0.16,0.48-0.741,1.021-1.74,1.62
		c-1.601,0.921-3.12,1.32-4.56,1.2c-1.44-0.12-2.16-0.8-2.16-2.04c0-0.439,0.159-1.089,0.48-1.95c0.319-0.859,0.699-1.59,1.14-2.189
		c0.36-0.48,0.669-0.979,0.93-1.5c0.26-0.52,0.44-0.92,0.54-1.2c0.1-0.279,0.15-0.439,0.15-0.479c-0.16-0.04-0.311-0.061-0.45-0.061
		c-0.141,0-0.411,0.04-0.81,0.12c-0.321,0.04-0.531,0.15-0.631,0.33s-0.189,0.53-0.27,1.05c-0.28,1.4-1.4,2.9-3.36,4.5
		c-1.84,1.48-3,1.9-3.479,1.26c-0.039-0.079-0.08-0.14-0.12-0.18c-0.159-0.48,0.341-1.02,1.5-1.62
		c0.999-0.479,1.869-1.159,2.61-2.04c0.739-0.879,1.249-1.779,1.529-2.7c0.08-0.239,0.069-0.399-0.029-0.479
		c-0.101-0.08-0.391-0.12-0.871-0.12c-0.68,0-1.14-0.1-1.379-0.3c-0.24-0.2-0.381-0.54-0.42-1.021
		C173.207,34.591,173.406,34.251,173.848,34.051z"/>
	<path fill="#E12B28" d="M190.828,34.171c1.8-0.88,3.039-0.96,3.72-0.24c0.36,0.36,0.54,0.61,0.54,0.75c0,0.141-0.12,0.45-0.36,0.93
		c-0.2,0.4-0.479,0.61-0.84,0.63c-0.36,0.021-0.64-0.149-0.84-0.51c-0.161-0.279-0.36-0.409-0.601-0.39
		c-0.24,0.021-0.66,0.21-1.26,0.569c-1.32,0.841-2.41,1.941-3.27,3.301c-0.861,1.36-1.15,2.601-0.87,3.72
		c0.319,1.32,1.76,1.721,4.319,1.2c0.84-0.159,2.101-0.66,3.781-1.5c1.279-0.64,1.92-0.84,1.92-0.601
		c0.039,0.16-0.041,0.441-0.24,0.84c-0.48,1.2-2.34,2.121-5.58,2.761c-0.881,0.2-1.811,0.23-2.791,0.09
		c-0.98-0.14-1.67-0.43-2.069-0.87c-1.2-1.359-1.52-2.94-0.96-4.74c0.32-0.84,1.07-1.929,2.25-3.27
		C188.857,35.501,189.907,34.612,190.828,34.171z"/>
	<path fill="#E12B28" d="M199.197,37.141c0.26-0.1,0.469-0.039,0.63,0.18c0.159,0.221,0.079,1.57-0.24,4.05
		c-0.2,1.48-0.261,2.28-0.181,2.4c0.2,0.32,0.1,0.66-0.299,1.021c-0.4,0.359-0.78,0.479-1.141,0.359
		c-0.119-0.039-0.25-0.189-0.39-0.45c-0.141-0.26-0.231-0.489-0.271-0.689c-0.08-0.279-0.06-0.439,0.061-0.48
		c0.119-0.039,0.18-0.339,0.18-0.899c0-0.721,0.1-1.58,0.301-2.58c0.199-1,0.398-1.7,0.6-2.101
		C198.688,37.511,198.937,37.242,199.197,37.141z M199.167,32.011c0.279-0.32,0.55-0.48,0.81-0.48s0.49,0.16,0.69,0.48
		s0.26,0.7,0.181,1.14c-0.082,0.72-0.281,1.091-0.601,1.11c-0.321,0.021-0.641-0.31-0.96-0.99
		C199.007,32.751,198.967,32.332,199.167,32.011z"/>
	<path fill="#E12B28" d="M206.846,35.071c0.64-0.199,1.351-0.199,2.131,0c0.779,0.201,1.25,0.501,1.41,0.9
		c0.119,0.32,0.119,0.88,0,1.68c-0.4,2.961-0.441,4.78-0.121,5.46c0.16,0.24,0.29,0.351,0.391,0.33c0.1-0.02,0.369-0.21,0.811-0.57
		c0.84-0.68,1.319-0.799,1.439-0.359c0.039,0.08,0.039,0.22,0,0.42c-0.12,0.32-0.48,0.79-1.08,1.41s-1.101,0.97-1.5,1.05
		c-0.44,0.12-0.74,0.09-0.9-0.09c-0.16-0.181-0.359-0.75-0.6-1.71c-0.08-0.279-0.15-0.601-0.21-0.96
		c-0.06-0.36-0.101-0.65-0.12-0.87c-0.021-0.22-0.051-0.33-0.09-0.33c-0.12-0.12-0.66,0.4-1.62,1.56
		c-1.319,1.601-2.38,2.301-3.181,2.101c-0.279-0.08-0.479-0.22-0.6-0.42c-0.119-0.2-0.26-0.62-0.42-1.261
		c-0.279-1.159,0.1-2.769,1.141-4.829C204.766,36.521,205.806,35.351,206.846,35.071z M208.586,37.292
		c-0.16-0.399-0.44-0.601-0.84-0.601c-0.4,0-0.84,0.201-1.32,0.601c-1.12,1-1.859,2.42-2.22,4.26c-0.239,1.08-0.239,1.62,0,1.62
		c0.24,0,0.759-0.5,1.56-1.5c0.121-0.12,0.279-0.301,0.48-0.54c0.52-0.64,0.9-1.11,1.141-1.41c0.239-0.3,0.488-0.64,0.75-1.021
		c0.26-0.379,0.42-0.669,0.479-0.869S208.666,37.452,208.586,37.292z"/>
	<path fill="#E12B28" d="M220.947,16.171c0.479-0.52,1.02-0.78,1.619-0.78c0.52,0,0.85,0.09,0.99,0.27
		c0.14,0.181,0.289,0.73,0.45,1.65c0.319,1.601,0.14,3.95-0.54,7.05c-0.681,3.101-1.78,6.551-3.301,10.351
		c-1.199,3.08-1.799,4.7-1.799,4.859c0,0.601,0.149,1.331,0.449,2.19c0.301,0.86,0.67,1.35,1.11,1.47
		c0.399,0.12,0.739,0.061,1.021-0.18c1.039-0.72,1.639-1.04,1.799-0.96c0.08,0.08,0.141,0.22,0.181,0.42c0,0.4-0.149,0.79-0.45,1.17
		c-0.3,0.381-0.65,0.67-1.05,0.87c-1.04,0.4-1.96,0.351-2.761-0.15c-0.8-0.499-1.319-1.329-1.56-2.49
		c-0.081-0.519-0.239-0.779-0.479-0.779s-0.461,0.2-0.66,0.6c-0.24,0.44-0.701,0.96-1.381,1.561c-0.68,0.6-1.139,0.899-1.379,0.899
		c-0.279,0-0.46-0.14-0.541-0.42c-0.079-0.279-0.02-0.579,0.181-0.9c0-0.039,0.56-0.779,1.681-2.22
		c0.879-1.159,1.418-2.06,1.619-2.7c0.12-0.319,0.42-2.679,0.9-7.08c0.56-4.56,1.119-7.909,1.68-10.05
		C219.286,18.682,220.025,17.131,220.947,16.171z M222.297,20.491c0.1-2.119,0.049-3.18-0.15-3.18c-0.201,0-0.48,0.351-0.84,1.05
		c-0.359,0.7-0.681,1.53-0.96,2.49c-0.321,1-0.7,2.88-1.14,5.64c-0.441,2.761-0.701,4.86-0.78,6.301
		c-0.081,1.319-0.081,1.979,0,1.979c0.039,0.04,0.12-0.02,0.239-0.18c0.32-0.399,0.771-1.44,1.351-3.12
		c0.579-1.68,1.05-3.319,1.41-4.92C221.906,24.631,222.196,22.612,222.297,20.491z"/>
</g>
</svg>
